Hotels
…
Night

what the total of the night that the customer stayed

## # A tibble: 119,390 x 3
##    stays_in_weekend_nights stays_in_week_nights stays_nights
##                      <dbl>                <dbl>        <dbl>
##  1                       0                    0            0
##  2                       0                    0            0
##  3                       0                    1            1
##  4                       0                    1            1
##  5                       0                    2            2
##  6                       0                    2            2
##  7                       0                    2            2
##  8                       0                    2            2
##  9                       0                    3            3
## 10                       0                    3            3
## # ... with 119,380 more rows
